../Core/Src/stm32g0xx_hal_msp.c:63:6:HAL_MspInit	16	static
../Core/Src/stm32g0xx_hal_msp.c:87:6:HAL_I2C_MspInit	96	static
../Core/Src/stm32g0xx_hal_msp.c:133:6:HAL_I2C_MspDeInit	16	static
../Core/Src/stm32g0xx_hal_msp.c:164:6:HAL_UART_MspInit	56	static
../Core/Src/stm32g0xx_hal_msp.c:200:6:HAL_UART_MspDeInit	16	static
